// Jest Snapshot v1, https://goo.gl/fbAQLP

exports[`pageanrc lint should lint the all empty pageanrc and return all CLI errors: stderr 1`] = `
"
./tests/test-configs/cli-tests/all-empty.pageanrc.json
  <pageanrc>.puppeteerLaunchOptions  must NOT have fewer than 1 properties
  <pageanrc>.reporters               must NOT have fewer than 1 items
  <pageanrc>.settings                must NOT have fewer than 1 properties
  <pageanrc>.urls                    must NOT have fewer than 1 items

Fatal error - exiting (1)
"
`;

exports[`pageanrc lint should lint the all empty pageanrc and return all JSON errors to stdout with --json option: stdout 1`] = `
"[
  {
    "instancePath": "/puppeteerLaunchOptions",
    "schemaPath": "#/properties/puppeteerLaunchOptions/minProperties",
    "keyword": "minProperties",
    "params": {
      "limit": 1
    },
    "message": "must NOT have fewer than 1 properties"
  },
  {
    "instancePath": "/reporters",
    "schemaPath": "#/properties/reporters/minItems",
    "keyword": "minItems",
    "params": {
      "limit": 1
    },
    "message": "must NOT have fewer than 1 items"
  },
  {
    "instancePath": "/settings",
    "schemaPath": "#/minProperties",
    "keyword": "minProperties",
    "params": {
      "limit": 1
    },
    "message": "must NOT have fewer than 1 properties"
  },
  {
    "instancePath": "/urls",
    "schemaPath": "#/properties/urls/minItems",
    "keyword": "minItems",
    "params": {
      "limit": 1
    },
    "message": "must NOT have fewer than 1 items"
  }
]
"
`;

exports[`pageanrc lint should lint the all errors pageanrc and return all CLI errors: stderr 1`] = `
"
./tests/test-configs/cli-tests/all-errors.pageanrc.json
  <pageanrc>.extraProperty                                 must NOT contain additional properties: "extraProperty"
  <pageanrc>.htmlhintrc                                    must be string
  <pageanrc>.project                                       must be string
  <pageanrc>.puppeteerLaunchOptions                        must NOT have fewer than 1 properties
  <pageanrc>.reporters[0]                                  must be equal to one of the allowed values (cli, html, json)
  <pageanrc>.settings.new/Test                             must NOT contain additional properties: "new/Test"
  <pageanrc>.settings.consoleOutputTest                    must be either boolean or object with the appropriate properties
  <pageanrc>.settings.pageLoadTimeTest.some                must NOT contain additional properties: "some"
  <pageanrc>.settings.pageLoadTimeTest                     must be either boolean or object with the appropriate properties
  <pageanrc>.urls[1]                                       must be either URL string or object with the appropriate properties
  <pageanrc>.urls[2].some                                  must NOT contain additional properties: "some"
  <pageanrc>.urls[2].settings.consoleOutputTest            must be either boolean or object with the appropriate properties
  <pageanrc>.urls[2].settings.externalScriptTest           must be either boolean or object with the appropriate properties
  <pageanrc>.urls[2]                                       must be either URL string or object with the appropriate properties
  <pageanrc>.urls[3].settings.pageLoadTimeTest.foo         must NOT contain additional properties: "foo"
  <pageanrc>.urls[3].settings.pageLoadTimeTest.b~ar        must NOT contain additional properties: "b~ar"
  <pageanrc>.urls[3].settings.pageLoadTimeTest             must be either boolean or object with the appropriate properties
  <pageanrc>.urls[3].settings.brokenLinkTest.ignoredLinks  must be array
  <pageanrc>.urls[3].settings.brokenLinkTest               must be either boolean or object with the appropriate properties
  <pageanrc>.urls[3]                                       must be either URL string or object with the appropriate properties
  <pageanrc>.urls[4].settings.goo                          must NOT contain additional properties: "goo"
  <pageanrc>.urls[4].settings.consoleErrorTest.some        must NOT contain additional properties: "some"
  <pageanrc>.urls[4].settings.consoleErrorTest             must be either boolean or object with the appropriate properties
  <pageanrc>.urls[4].settings.brokenLinkTest.ignoredLinks  must NOT have duplicate items (items ## 1 and 0 are identical)
  <pageanrc>.urls[4].settings.brokenLinkTest               must be either boolean or object with the appropriate properties
  <pageanrc>.urls[4]                                       must be either URL string or object with the appropriate properties
  <pageanrc>.urls[5]                                       must have required property 'url'
  <pageanrc>.urls[5]                                       must be either URL string or object with the appropriate properties

Fatal error - exiting (1)
"
`;

exports[`pageanrc lint should lint the all errors pageanrc and return all JSON errors to stdout with -j option: stdout 1`] = `
"[
  {
    "instancePath": "/extraProperty",
    "schemaPath": "#/additionalProperties/errorMessage",
    "keyword": "errorMessage",
    "params": {
      "errors": [
        {
          "instancePath": "/extraProperty",
          "schemaPath": "#/additionalProperties/not",
          "keyword": "not",
          "params": {},
          "message": "must NOT be valid",
          "emUsed": true
        }
      ]
    },
    "message": "must NOT contain additional properties: \\"extraProperty\\""
  },
  {
    "instancePath": "/htmlhintrc",
    "schemaPath": "#/properties/htmlhintrc/type",
    "keyword": "type",
    "params": {
      "type": "string"
    },
    "message": "must be string"
  },
  {
    "instancePath": "/project",
    "schemaPath": "#/properties/project/type",
    "keyword": "type",
    "params": {
      "type": "string"
    },
    "message": "must be string"
  },
  {
    "instancePath": "/puppeteerLaunchOptions",
    "schemaPath": "#/properties/puppeteerLaunchOptions/minProperties",
    "keyword": "minProperties",
    "params": {
      "limit": 1
    },
    "message": "must NOT have fewer than 1 properties"
  },
  {
    "instancePath": "/reporters/0",
    "schemaPath": "#/properties/reporters/items/enum",
    "keyword": "enum",
    "params": {
      "allowedValues": [
        "cli",
        "html",
        "json"
      ]
    },
    "message": "must be equal to one of the allowed values"
  },
  {
    "instancePath": "/settings/new~1Test",
    "schemaPath": "#/additionalProperties/errorMessage",
    "keyword": "errorMessage",
    "params": {
      "errors": [
        {
          "instancePath": "/settings/new~1Test",
          "schemaPath": "#/additionalProperties/not",
          "keyword": "not",
          "params": {},
          "message": "must NOT be valid",
          "emUsed": true
        }
      ]
    },
    "message": "must NOT contain additional properties: \\"new/Test\\""
  },
  {
    "instancePath": "/settings/consoleOutputTest",
    "schemaPath": "#/errorMessage",
    "keyword": "errorMessage",
    "params": {
      "errors": [
        {
          "instancePath": "/settings/consoleOutputTest",
          "schemaPath": "#/oneOf/0/type",
          "keyword": "type",
          "params": {
            "type": "boolean"
          },
          "message": "must be boolean",
          "emUsed": true
        },
        {
          "instancePath": "/settings/consoleOutputTest",
          "schemaPath": "#/definitions/detailedSetting/type",
          "keyword": "type",
          "params": {
            "type": "object"
          },
          "message": "must be object",
          "emUsed": true
        },
        {
          "instancePath": "/settings/consoleOutputTest",
          "schemaPath": "#/oneOf",
          "keyword": "oneOf",
          "params": {
            "passingSchemas": null
          },
          "message": "must match exactly one schema in oneOf",
          "emUsed": true
        }
      ]
    },
    "message": "must be either boolean or object with the appropriate properties"
  },
  {
    "instancePath": "/settings/pageLoadTimeTest/some",
    "schemaPath": "#/properties/pageLoadTimeTest/oneOf/1/additionalProperties/errorMessage",
    "keyword": "errorMessage",
    "params": {
      "errors": [
        {
          "instancePath": "/settings/pageLoadTimeTest/some",
          "schemaPath": "#/properties/pageLoadTimeTest/oneOf/1/additionalProperties/not",
          "keyword": "not",
          "params": {},
          "message": "must NOT be valid",
          "emUsed": true
        }
      ]
    },
    "message": "must NOT contain additional properties: \\"some\\""
  },
  {
    "instancePath": "/settings/pageLoadTimeTest",
    "schemaPath": "#/properties/pageLoadTimeTest/errorMessage",
    "keyword": "errorMessage",
    "params": {
      "errors": [
        {
          "instancePath": "/settings/pageLoadTimeTest",
          "schemaPath": "#/properties/pageLoadTimeTest/oneOf/0/type",
          "keyword": "type",
          "params": {
            "type": "boolean"
          },
          "message": "must be boolean",
          "emUsed": true
        },
        {
          "instancePath": "/settings/pageLoadTimeTest",
          "schemaPath": "#/properties/pageLoadTimeTest/oneOf",
          "keyword": "oneOf",
          "params": {
            "passingSchemas": null
          },
          "message": "must match exactly one schema in oneOf",
          "emUsed": true
        }
      ]
    },
    "message": "must be either boolean or object with the appropriate properties"
  },
  {
    "instancePath": "/urls/1",
    "schemaPath": "#/properties/urls/items/errorMessage",
    "keyword": "errorMessage",
    "params": {
      "errors": [
        {
          "instancePath": "/urls/1",
          "schemaPath": "#/properties/urls/items/oneOf/0/type",
          "keyword": "type",
          "params": {
            "type": "string"
          },
          "message": "must be string",
          "emUsed": true
        },
        {
          "instancePath": "/urls/1",
          "schemaPath": "#/properties/urls/items/oneOf/1/type",
          "keyword": "type",
          "params": {
            "type": "object"
          },
          "message": "must be object",
          "emUsed": true
        },
        {
          "instancePath": "/urls/1",
          "schemaPath": "#/properties/urls/items/oneOf",
          "keyword": "oneOf",
          "params": {
            "passingSchemas": null
          },
          "message": "must match exactly one schema in oneOf",
          "emUsed": true
        }
      ]
    },
    "message": "must be either URL string or object with the appropriate properties"
  },
  {
    "instancePath": "/urls/2/some",
    "schemaPath": "#/properties/urls/items/oneOf/1/additionalProperties/errorMessage",
    "keyword": "errorMessage",
    "params": {
      "errors": [
        {
          "instancePath": "/urls/2/some",
          "schemaPath": "#/properties/urls/items/oneOf/1/additionalProperties/not",
          "keyword": "not",
          "params": {},
          "message": "must NOT be valid",
          "emUsed": true
        }
      ]
    },
    "message": "must NOT contain additional properties: \\"some\\""
  },
  {
    "instancePath": "/urls/2/settings/consoleOutputTest",
    "schemaPath": "#/errorMessage",
    "keyword": "errorMessage",
    "params": {
      "errors": [
        {
          "instancePath": "/urls/2/settings/consoleOutputTest",
          "schemaPath": "#/oneOf/0/type",
          "keyword": "type",
          "params": {
            "type": "boolean"
          },
          "message": "must be boolean",
          "emUsed": true
        },
        {
          "instancePath": "/urls/2/settings/consoleOutputTest",
          "schemaPath": "#/definitions/detailedSetting/minProperties",
          "keyword": "minProperties",
          "params": {
            "limit": 1
          },
          "message": "must NOT have fewer than 1 properties",
          "emUsed": true
        },
        {
          "instancePath": "/urls/2/settings/consoleOutputTest",
          "schemaPath": "#/oneOf",
          "keyword": "oneOf",
          "params": {
            "passingSchemas": null
          },
          "message": "must match exactly one schema in oneOf",
          "emUsed": true
        }
      ]
    },
    "message": "must be either boolean or object with the appropriate properties"
  },
  {
    "instancePath": "/urls/2/settings/externalScriptTest",
    "schemaPath": "#/errorMessage",
    "keyword": "errorMessage",
    "params": {
      "errors": [
        {
          "instancePath": "/urls/2/settings/externalScriptTest",
          "schemaPath": "#/oneOf/0/type",
          "keyword": "type",
          "params": {
            "type": "boolean"
          },
          "message": "must be boolean",
          "emUsed": true
        },
        {
          "instancePath": "/urls/2/settings/externalScriptTest",
          "schemaPath": "#/definitions/detailedSetting/type",
          "keyword": "type",
          "params": {
            "type": "object"
          },
          "message": "must be object",
          "emUsed": true
        },
        {
          "instancePath": "/urls/2/settings/externalScriptTest",
          "schemaPath": "#/oneOf",
          "keyword": "oneOf",
          "params": {
            "passingSchemas": null
          },
          "message": "must match exactly one schema in oneOf",
          "emUsed": true
        }
      ]
    },
    "message": "must be either boolean or object with the appropriate properties"
  },
  {
    "instancePath": "/urls/2",
    "schemaPath": "#/properties/urls/items/errorMessage",
    "keyword": "errorMessage",
    "params": {
      "errors": [
        {
          "instancePath": "/urls/2",
          "schemaPath": "#/properties/urls/items/oneOf/0/type",
          "keyword": "type",
          "params": {
            "type": "string"
          },
          "message": "must be string",
          "emUsed": true
        },
        {
          "instancePath": "/urls/2",
          "schemaPath": "#/properties/urls/items/oneOf",
          "keyword": "oneOf",
          "params": {
            "passingSchemas": null
          },
          "message": "must match exactly one schema in oneOf",
          "emUsed": true
        }
      ]
    },
    "message": "must be either URL string or object with the appropriate properties"
  },
  {
    "instancePath": "/urls/3/settings/pageLoadTimeTest/foo",
    "schemaPath": "#/properties/pageLoadTimeTest/oneOf/1/additionalProperties/errorMessage",
    "keyword": "errorMessage",
    "params": {
      "errors": [
        {
          "instancePath": "/urls/3/settings/pageLoadTimeTest/foo",
          "schemaPath": "#/properties/pageLoadTimeTest/oneOf/1/additionalProperties/not",
          "keyword": "not",
          "params": {},
          "message": "must NOT be valid",
          "emUsed": true
        }
      ]
    },
    "message": "must NOT contain additional properties: \\"foo\\""
  },
  {
    "instancePath": "/urls/3/settings/pageLoadTimeTest/b~0ar",
    "schemaPath": "#/properties/pageLoadTimeTest/oneOf/1/additionalProperties/errorMessage",
    "keyword": "errorMessage",
    "params": {
      "errors": [
        {
          "instancePath": "/urls/3/settings/pageLoadTimeTest/b~0ar",
          "schemaPath": "#/properties/pageLoadTimeTest/oneOf/1/additionalProperties/not",
          "keyword": "not",
          "params": {},
          "message": "must NOT be valid",
          "emUsed": true
        }
      ]
    },
    "message": "must NOT contain additional properties: \\"b~ar\\""
  },
  {
    "instancePath": "/urls/3/settings/pageLoadTimeTest",
    "schemaPath": "#/properties/pageLoadTimeTest/errorMessage",
    "keyword": "errorMessage",
    "params": {
      "errors": [
        {
          "instancePath": "/urls/3/settings/pageLoadTimeTest",
          "schemaPath": "#/properties/pageLoadTimeTest/oneOf/0/type",
          "keyword": "type",
          "params": {
            "type": "boolean"
          },
          "message": "must be boolean",
          "emUsed": true
        },
        {
          "instancePath": "/urls/3/settings/pageLoadTimeTest",
          "schemaPath": "#/properties/pageLoadTimeTest/oneOf",
          "keyword": "oneOf",
          "params": {
            "passingSchemas": null
          },
          "message": "must match exactly one schema in oneOf",
          "emUsed": true
        }
      ]
    },
    "message": "must be either boolean or object with the appropriate properties"
  },
  {
    "instancePath": "/urls/3/settings/brokenLinkTest/ignoredLinks",
    "schemaPath": "#/properties/brokenLinkTest/oneOf/1/properties/ignoredLinks/type",
    "keyword": "type",
    "params": {
      "type": "array"
    },
    "message": "must be array"
  },
  {
    "instancePath": "/urls/3/settings/brokenLinkTest",
    "schemaPath": "#/properties/brokenLinkTest/errorMessage",
    "keyword": "errorMessage",
    "params": {
      "errors": [
        {
          "instancePath": "/urls/3/settings/brokenLinkTest",
          "schemaPath": "#/properties/brokenLinkTest/oneOf/0/type",
          "keyword": "type",
          "params": {
            "type": "boolean"
          },
          "message": "must be boolean",
          "emUsed": true
        },
        {
          "instancePath": "/urls/3/settings/brokenLinkTest",
          "schemaPath": "#/properties/brokenLinkTest/oneOf",
          "keyword": "oneOf",
          "params": {
            "passingSchemas": null
          },
          "message": "must match exactly one schema in oneOf",
          "emUsed": true
        }
      ]
    },
    "message": "must be either boolean or object with the appropriate properties"
  },
  {
    "instancePath": "/urls/3",
    "schemaPath": "#/properties/urls/items/errorMessage",
    "keyword": "errorMessage",
    "params": {
      "errors": [
        {
          "instancePath": "/urls/3",
          "schemaPath": "#/properties/urls/items/oneOf/0/type",
          "keyword": "type",
          "params": {
            "type": "string"
          },
          "message": "must be string",
          "emUsed": true
        },
        {
          "instancePath": "/urls/3",
          "schemaPath": "#/properties/urls/items/oneOf",
          "keyword": "oneOf",
          "params": {
            "passingSchemas": null
          },
          "message": "must match exactly one schema in oneOf",
          "emUsed": true
        }
      ]
    },
    "message": "must be either URL string or object with the appropriate properties"
  },
  {
    "instancePath": "/urls/4/settings/goo",
    "schemaPath": "#/additionalProperties/errorMessage",
    "keyword": "errorMessage",
    "params": {
      "errors": [
        {
          "instancePath": "/urls/4/settings/goo",
          "schemaPath": "#/additionalProperties/not",
          "keyword": "not",
          "params": {},
          "message": "must NOT be valid",
          "emUsed": true
        }
      ]
    },
    "message": "must NOT contain additional properties: \\"goo\\""
  },
  {
    "instancePath": "/urls/4/settings/consoleErrorTest/some",
    "schemaPath": "#/definitions/detailedSetting/additionalProperties/errorMessage",
    "keyword": "errorMessage",
    "params": {
      "errors": [
        {
          "instancePath": "/urls/4/settings/consoleErrorTest/some",
          "schemaPath": "#/definitions/detailedSetting/additionalProperties/not",
          "keyword": "not",
          "params": {},
          "message": "must NOT be valid",
          "emUsed": true
        }
      ]
    },
    "message": "must NOT contain additional properties: \\"some\\""
  },
  {
    "instancePath": "/urls/4/settings/consoleErrorTest",
    "schemaPath": "#/errorMessage",
    "keyword": "errorMessage",
    "params": {
      "errors": [
        {
          "instancePath": "/urls/4/settings/consoleErrorTest",
          "schemaPath": "#/oneOf/0/type",
          "keyword": "type",
          "params": {
            "type": "boolean"
          },
          "message": "must be boolean",
          "emUsed": true
        },
        {
          "instancePath": "/urls/4/settings/consoleErrorTest",
          "schemaPath": "#/oneOf",
          "keyword": "oneOf",
          "params": {
            "passingSchemas": null
          },
          "message": "must match exactly one schema in oneOf",
          "emUsed": true
        }
      ]
    },
    "message": "must be either boolean or object with the appropriate properties"
  },
  {
    "instancePath": "/urls/4/settings/brokenLinkTest/ignoredLinks",
    "schemaPath": "#/properties/brokenLinkTest/oneOf/1/properties/ignoredLinks/uniqueItems",
    "keyword": "uniqueItems",
    "params": {
      "i": 0,
      "j": 1
    },
    "message": "must NOT have duplicate items (items ## 1 and 0 are identical)"
  },
  {
    "instancePath": "/urls/4/settings/brokenLinkTest",
    "schemaPath": "#/properties/brokenLinkTest/errorMessage",
    "keyword": "errorMessage",
    "params": {
      "errors": [
        {
          "instancePath": "/urls/4/settings/brokenLinkTest",
          "schemaPath": "#/properties/brokenLinkTest/oneOf/0/type",
          "keyword": "type",
          "params": {
            "type": "boolean"
          },
          "message": "must be boolean",
          "emUsed": true
        },
        {
          "instancePath": "/urls/4/settings/brokenLinkTest",
          "schemaPath": "#/properties/brokenLinkTest/oneOf",
          "keyword": "oneOf",
          "params": {
            "passingSchemas": null
          },
          "message": "must match exactly one schema in oneOf",
          "emUsed": true
        }
      ]
    },
    "message": "must be either boolean or object with the appropriate properties"
  },
  {
    "instancePath": "/urls/4",
    "schemaPath": "#/properties/urls/items/errorMessage",
    "keyword": "errorMessage",
    "params": {
      "errors": [
        {
          "instancePath": "/urls/4",
          "schemaPath": "#/properties/urls/items/oneOf/0/type",
          "keyword": "type",
          "params": {
            "type": "string"
          },
          "message": "must be string",
          "emUsed": true
        },
        {
          "instancePath": "/urls/4",
          "schemaPath": "#/properties/urls/items/oneOf",
          "keyword": "oneOf",
          "params": {
            "passingSchemas": null
          },
          "message": "must match exactly one schema in oneOf",
          "emUsed": true
        }
      ]
    },
    "message": "must be either URL string or object with the appropriate properties"
  },
  {
    "instancePath": "/urls/5",
    "schemaPath": "#/properties/urls/items/oneOf/1/errorMessage",
    "keyword": "errorMessage",
    "params": {
      "errors": [
        {
          "instancePath": "/urls/5",
          "schemaPath": "#/properties/urls/items/oneOf/1/required",
          "keyword": "required",
          "params": {
            "missingProperty": "url"
          },
          "message": "must have required property 'url'",
          "emUsed": true
        }
      ]
    },
    "message": "must have required property 'url'"
  },
  {
    "instancePath": "/urls/5",
    "schemaPath": "#/properties/urls/items/errorMessage",
    "keyword": "errorMessage",
    "params": {
      "errors": [
        {
          "instancePath": "/urls/5",
          "schemaPath": "#/properties/urls/items/oneOf/0/type",
          "keyword": "type",
          "params": {
            "type": "string"
          },
          "message": "must be string",
          "emUsed": true
        },
        {
          "instancePath": "/urls/5",
          "schemaPath": "#/properties/urls/items/oneOf",
          "keyword": "oneOf",
          "params": {
            "passingSchemas": null
          },
          "message": "must match exactly one schema in oneOf",
          "emUsed": true
        }
      ]
    },
    "message": "must be either URL string or object with the appropriate properties"
  }
]
"
`;

exports[`pageanrc lint should lint the empty pageanrc and return all CLI errors: stderr 1`] = `
"
./tests/test-configs/unit-tests/empty.pageanrc.json
  <pageanrc>  must have required property 'urls'

Fatal error - exiting (1)
"
`;
